{
  "type": "service_account",
  "project_id": "youtube-financial-news-upload",
  "private_key_id": "711d0508da4b90314297194ffb9e49011edd2e8a",
  "private_key": "-----BEGIN PRIVATE KEY-----\nMIIEvwIBADANBgkqhkiG9w0BAQEFAASCBKkwggSlAgEAAoIBAQDrvbVSQUXNYiwO\njQn+nCnpjKnc1ZORm2PPQrnte1kq7k6NtENKTkiTj4PrgKrsVhJU7UXCw64fR7Xq\n297sqbZojkJxn8TKy1PWocK6Jg/3179InCQS7oqP0+7xcO2x+R4Eyji1nCQRGkRH\n/fbhh3oAnnd7hXUkBa3jZbwE0hCxqumD1L1zSq+RrRFpRQOd3PvQGR9lubF3JBSV\nWNgwks7iurzl8XPxvUkMzkY3W7GgosXFFkiFt0SD8vYieIUd7qO3la5RVGr0PDP/\nHhTZt6KHqoOl9fv/lqdj665bVaYU7ztY2yP/xXikQyvqLstg4HlIV7dYZIs7W7xs\nE5bRAg9BAgMBAAECggEAH+TxCwGrQrwZR1e0Jjc1IXTHR4o61qyeHpzBwHxbhkgr\nJxdgMkWwoow8diiYl3SWsthOQ6lLXc6LMY0RVlYoyHEU0sAhtSk4vNVyXdKH/wl4\nxwdfBxOwegCbt51Gf3l7ovzEGugW5hx2aAIXfJBihIJsGnFmNZsyGU26mDFeklbR\nl/+igSPoTs/qzYxSF8jaLlp1xompg4zjWu+yMxsWJGGKmeOUIwOdIea2D74ZMr+Z\nM23XyVNKcnvFJMMPHlTn0TE7HS2rj/KjPqFpeF95spGUzGizcAHodmLcccYPAulF\n9sn64Czx4vh1EpRV5904Q+X6l5bZxai06LjgEDhxBQKBgQD6inRpIEtslOHHCr15\nwLr97hsnflGoAkLUST4OW70gbSPCmG/YBz9FSBWYgwqgIo5s4TvvX1sjrzfrMrjQ\n+RQhoPl6g/Gj8vNvMMC/XoOXCfp9zAAvglyxUFsFhLWZRoFT95CjsaH8KwCM8/SD\nrQ+3UbbFLpUchj+uGpF6ERNlRQKBgQDw4LLaOWPpH+GkKXHjQzuPDVFIIb5vRGgi\n3+mzxZFQF6oE79VZ7TLvsd9gDCeji6QFxFwQQgJ8zxgmpTl+/nIs2wnvhdj1I5BZ\n4ryFjU68JHj5pWYbk+cMmGGGGCg5LvCcTdcWlDr4wzD260X+y4mOSVb0adIqM4wp\n4PFiNKALzQKBgQCB3hD3iTDviMD7vrp2iQukoq7aquTC1OE1Tv3mzXDchRY7QW8A\nKMmILRRcqNhyJ1dyYtIBg4knlyTCOtmIIQRpZhrLgedYl4/N/BR9Xg2R1i9M09jo\nx4cqtj9oPeEwIVbaYoJMB8CyiMvRRIdjVerGmInH7hyG26PYqJbuEjnejQKBgQDw\nZmE5uDNFlCL/UrmuJgiIAbOQeNT1eWExBSXZ3CDlvWha2v2kbT37yRr1Ycwhxhji\nBJIZS7ft1kX1M8sJOmq657Snz36zUVYcz1R1OY1N6lyuUutwNJFQmbgjO3LRd059\nwJYcm72rTitNE4xc+cgEMJ/O+Nnecmm91hkyePEONQKBgQDHQiON5Vmywj/sRLwL\nDoqPOAJTafteYrpxDiM8m6fGxrUl4ycA1BbaWz9xsDDe4g4dmceASAYFIbbOO7fA\nYf6i/e+RCBODIQZjOHmYNwDAnCgCwm0LismqMUq/iTAoqqofOtLVF6oCzkQdq4I4\nH4WlTBfYNvmsBM35WhzeXf8/0g==\n-----END PRIVATE KEY-----\n",
  "client_email": "texttospee@youtube-financial-news-upload.iam.gserviceaccount.com",
  "client_id": "104455159772893773944",
  "auth_uri": "https://accounts.google.com/o/oauth2/auth",
  "token_uri": "https://oauth2.googleapis.com/token",
  "auth_provider_x509_cert_url": "https://www.googleapis.com/oauth2/v1/certs",
  "client_x509_cert_url": "https://www.googleapis.com/robot/v1/metadata/x509/texttospee%40youtube-financial-news-upload.iam.gserviceaccount.com"
}
