{
  "type": "service_account",
  "project_id": "amazing-office-257220",
  "private_key_id": "16fb3733919988ed1fa115ac19ce323a506557ce",
  "private_key": "-----BEGIN PRIVATE KEY-----\nMIIEvgIBADANBgkqhkiG9w0BAQEFAASCBKgwggSkAgEAAoIBAQD9hxW6OaWyDCCN\nhdZyl99ojyZ5F7Oyt0rvC3O1GkIdQJ2/5xcVgsBGIaGAewQ9LtJBJ6ELUaiFRjlw\nzV7cw4uXrDrf3IsI2LpepCbucfmv5FtRL3+rlxARhkT2KbOagmUbiurdrU2+Lv5M\nVjzoAiQZVqSA0cU9ecpwulaCpIxkQCxe3v+tVBdFqKyQ0rxYUsl81d3EN6m/vRJL\nxNvZHM92GFw5RPjuHQY/AzZd81Z+WClWbbAA8dqsNcM6Y2T0TualWM0RmbehvSZR\nXrg73qTN1BJnT8gpYaN0djGqyLLCZBg25MDxrzvajcpDitFa2VLEvVovrcvEkvYH\nVMEC7tvrAgMBAAECggEABMWRnZ8vJLJAvJkrx51fKZckKLxO+AqmIOisxVhYrTdF\noNKHJzL+TnOcmA/4rPQgJfTKfa2MR/Hh6+MZqXsOugyWURdUEJcPru9VAkDn660X\nIOiNdRvTRBksXBu90ycoIwQS1phH8c/tnl8zJ0S/DDEKyJfqJ/WOX1/KeAwDznEz\nLYas9znQj+NbpaduwKM/eLhjDRt635dKcaN0mZH20YNLF4Fepnqo+UUS9teCb9A0\n5TsHZ61DAyBfdes4xyLgzbK3FrDwOkqzQCchl3jZaxLvH6FmsvDiiEUBSI38d6o+\nlTXnh/Gng1BQy1MabHH+mR0DVs6ut+uDZzng+EMy8QKBgQD/crZ+pEz0lNEOwOJ8\nalExAjjoy5ztae+rxp4RAeyjP5qKhmCQsNeGbKBnEuelAVpZcWUWG+Ge5+O80uiZ\n3holN4qGSgBdWRVUy25PPkPKoAtY9Kyah7TQh4z33tsu5SJhsBhHs1pTlcfGj2+g\nmjbM7omjMod9b19Hn/6CtuteuwKBgQD+E09QzYJ1P9qDw3g1H4EbIbY4bDKOCgQv\nBJoH9KU/hNCAfSW/9MaZQo0ZZvcWzebwfcxi9TeF4bYKfpUcKQ9OpMzDolcPhZVW\nsLd+WIT6x0pKtkpIb9kjoFI60mjJ+zPBo6Y8d0NGf4rycts3fMlS3QcaipVVk0/W\n7Y5yJwlckQKBgQDEANMCjTL3IBDhDyM5b6JoxlnAVitNB9H8reOvDRjzkeQUklMZ\n8ncND+Br9leDhmw64QU9V5thAHD/+5y6I29QSzOhIrrw5V+2tnknmJEPsonCccrW\nr3YP41JJBtiLPQmKh0G6EmYmaHDnbDussWeHCyjU7fqERqaHIL56sbwb7QKBgQC0\n+1ZFTY5/LJPfxe4rkRxrEjF1sYS1bucaAuIhhp/rRhUrYXnxaU/KPgC6NoENim/V\noRZk6x24zVXZ1d8rJwhTUcrWFB6F3PbKwKiEZFOdOzZtT7pMLPf0i6/nXJfuQHTW\nm1a/vYh7gECegTgsJ0RVNUJpIoxLX9rAU4ljQPFHMQKBgDh7KiIN0BgumluTTTwb\npR/dg7YCZWTTOLyven7HdsUmunz+pFBWsC9T1zhRBiLZLlAHQs+2oamtx+50IxxC\nnu62aY0Ci9AejJZSXSrGT5Dt8D8se4/SeFSpx64V917m/C5nGtcwUvUjKM+hI6WV\nd6Qbmgml+SFu5IXNq37/VfYx\n-----END PRIVATE KEY-----\n",
  "client_email": "textospee@amazing-office-257220.iam.gserviceaccount.com",
  "client_id": "104753335657826304779",
  "auth_uri": "https://accounts.google.com/o/oauth2/auth",
  "token_uri": "https://oauth2.googleapis.com/token",
  "auth_provider_x509_cert_url": "https://www.googleapis.com/oauth2/v1/certs",
  "client_x509_cert_url": "https://www.googleapis.com/robot/v1/metadata/x509/textospee%40amazing-office-257220.iam.gserviceaccount.com"
}
